<?xml version="1.0" encoding="utf-8"?>
<!-- Generator: Adobe Illustrator 22.0.0, SVG Export Plug-In . SVG Version: 6.00 Build 0)  -->
<svg version="1.1" id="Capa_1" xmlns="http://www.w3.org/2000/svg" xmlns:xlink="http://www.w3.org/1999/xlink" x="0px" y="0px"
	 viewBox="0 0 512 512" style="enable-background:new 0 0 512 512;" xml:space="preserve">
<style type="text/css">
	.st0{fill:none;}
	.st1{fill:#D1D1D1;}
</style>
<g>
	<g>
		<path d="M202.9,400.8c-1.9-1.9-4.4-2.9-7.1-2.9s-5.2,1.1-7.1,2.9s-2.9,4.4-2.9,7.1s1.1,5.2,2.9,7.1c1.9,1.9,4.4,2.9,7.1,2.9
			c2.6,0,5.2-1.1,7.1-2.9s2.9-4.4,2.9-7.1C205.8,405.2,204.8,402.6,202.9,400.8z"/>
	</g>
</g>
<g>
	<path class="st0" d="M289.4,358.9l-39.7-39.7c-5.1-5.1-7-12.4-5.1-19c1.8-6.1,6.7-10.6,12.9-12c3.9-0.8,7.3-2.7,10.1-5.4l1-1
		c8.9-8.9,7.6-24.8-3-35.4c-5.3-5.3-12-8.4-18.9-8.9c-6.5-0.4-12.3,1.7-16.5,5.9l-1,1c-2.7,2.7-4.6,6.1-5.4,10.1
		c-1.3,6.3-5.8,11.1-12,12.9c-6.6,2-13.9,0-19-5.1l-39.7-39.7c-3.3-3.3-8.3-4-10.8-1.5l-32.8,32.8c6.2,2.5,11.8,6.3,16.6,11.1
		l1.1,1.1c18.4,18.4,19.7,47,3,63.7c-16.7,16.7-45.3,15.4-63.7-3l-1.1-1.1c-4.8-4.9-8.6-10.4-11.1-16.6l-32.7,32.7
		c-1.4,1.4-1.6,3.2-1.5,4.5c0.1,2.2,1.2,4.5,3,6.3l39.7,39.7c5.1,5.1,7,12.4,5.1,19c-1.8,6.1-6.7,10.6-12.9,12
		c-3.9,0.8-7.3,2.7-10.1,5.4l-1,1c-8.9,8.9-7.6,24.8,3,35.4c10.6,10.6,26.5,11.9,35.4,3l1-1c2.7-2.7,4.6-6.1,5.4-10.1
		c1.3-6.3,5.8-11.1,12-12.9c1.7-0.5,3.4-0.7,5.2-0.7c5,0,10,2,13.8,5.8l10.4,10.4l33.2-33.2c3.9-3.9,10.2-3.9,14.1,0
		c3.9,3.9,3.9,10.2,0,14.1l-33.2,33.2l15.2,15.2c1.8,1.8,4.1,2.9,6.3,3c1.3,0.1,3.1-0.1,4.5-1.5l34.4-34.4c4.2-4.2,10.3-6,16.4-4.7
		c6.6,1.4,11.9,6,14.4,12.3c1.5,4,3.9,7.6,7,10.7l1.1,1.1c10.6,10.6,26.5,11.9,35.4,3c8.9-8.9,7.6-24.8-3-35.4l-1.1-1.1
		c-3.1-3.1-6.7-5.5-10.7-7c-6.3-2.4-10.9-7.8-12.3-14.4c-1.3-6,0.5-12.2,4.7-16.4l34.4-34.4c1.4-1.4,1.6-3.2,1.5-4.5
		C292.2,363,291.2,360.7,289.4,358.9z"/>
	<path d="M303.5,344.8l-38-38c6.1-1.9,11.7-5.3,16.2-9.8l1-1c16.7-16.7,15.4-45.3-3-63.7c-8.8-8.7-20.1-14-31.9-14.7
		c-12.3-0.7-23.6,3.4-31.8,11.7l-1,1c-4.5,4.5-7.9,10-9.8,16.2l-38-38c-11.2-11.2-28.7-11.9-39.1-1.5l-34.4,34.4
		c-4.2,4.2-6,10.3-4.7,16.4c1.4,6.6,6,11.9,12.3,14.4c4,1.5,7.6,3.9,10.7,7l1.1,1.1c5.3,5.3,8.4,12,8.9,18.9
		c0.4,6.5-1.7,12.3-5.9,16.5c-4.2,4.2-10,6.3-16.5,5.9c-6.9-0.4-13.6-3.6-18.9-8.9l-1.1-1.1c-3.1-3.1-5.5-6.7-7-10.7
		c-2.4-6.3-7.8-10.9-14.4-12.3c-6-1.3-12.2,0.5-16.4,4.7L7.4,327.7c-10.4,10.4-9.7,27.9,1.5,39.1l38,38c-6.1,1.9-11.7,5.3-16.2,9.8
		l-1,1c-16.7,16.7-15.4,45.3,3,63.7c9.8,9.8,22.4,14.7,34.6,14.7c10.8,0,21.3-3.9,29.1-11.7l1-1c4.5-4.5,7.9-10,9.8-16.2l38,38
		c5.3,5.3,12.1,8.4,19.3,8.8c0.5,0,1.1,0,1.6,0c6.9,0,13.5-2.6,18.2-7.4l32.7-32.7c2.5,6.2,6.3,11.8,11.1,16.6l1.1,1.1
		c18.4,18.4,47,19.7,63.7,3c16.7-16.7,15.4-45.3-3-63.7l-1.1-1.1c-4.8-4.9-10.4-8.6-16.6-11.1l32.8-32.8c5.1-5.1,7.8-12.3,7.3-19.8
		C311.9,356.9,308.8,350,303.5,344.8z M290.9,369.7l-34.4,34.4c-4.2,4.2-6,10.3-4.7,16.4c1.4,6.6,6,11.9,12.3,14.4
		c4,1.5,7.6,3.9,10.7,7l1.1,1.1c10.6,10.6,11.9,26.5,3,35.4c-8.9,8.9-24.8,7.6-35.4-3l-1.1-1.1c-3.1-3.1-5.5-6.7-7-10.7
		c-2.4-6.3-7.8-10.9-14.4-12.3c-6-1.3-12.2,0.5-16.4,4.7l-34.4,34.4c-1.4,1.4-3.2,1.6-4.5,1.5c-2.2-0.1-4.5-1.2-6.3-3l-15.2-15.2
		l33.2-33.2c3.9-3.9,3.9-10.2,0-14.1c-3.9-3.9-10.2-3.9-14.1,0l-33.2,33.2l-10.4-10.4c-3.8-3.8-8.8-5.8-13.8-5.8
		c-1.7,0-3.5,0.2-5.2,0.7c-6.1,1.8-10.6,6.7-12,12.9c-0.8,3.9-2.7,7.3-5.4,10.1l-1,1c-8.9,8.9-24.8,7.6-35.4-3
		c-10.6-10.6-11.9-26.5-3-35.4l1-1c2.7-2.7,6.1-4.6,10.1-5.4c6.3-1.3,11.1-5.8,12.9-12c2-6.6,0-13.9-5.1-19L23,352.7
		c-1.8-1.8-2.9-4.1-3-6.3c-0.1-1.3,0.1-3.1,1.5-4.5l32.7-32.7c2.5,6.2,6.3,11.8,11.1,16.6l1.1,1.1c18.4,18.4,47,19.7,63.7,3
		c16.7-16.7,15.4-45.3-3-63.7l-1.1-1.1c-4.9-4.9-10.4-8.6-16.6-11.1l32.8-32.8c2.5-2.5,7.5-1.8,10.8,1.5l39.7,39.7
		c5.1,5.1,12.4,7,19,5.1c6.1-1.8,10.6-6.7,12-12.9c0.8-3.9,2.7-7.3,5.4-10.1l1-1c4.2-4.2,10-6.2,16.5-5.9c6.9,0.4,13.6,3.6,18.9,8.9
		c10.6,10.6,11.9,26.5,3,35.4l-1,1c-2.7,2.7-6.1,4.6-10.1,5.4c-6.3,1.3-11.1,5.8-12.9,12c-2,6.6,0,13.9,5.1,19l39.7,39.7
		c1.8,1.8,2.9,4.1,3,6.3C292.5,366.5,292.3,368.3,290.9,369.7z"/>
	<path class="st1" d="M489,159.3l-38.8-38.8c-4.9-4.9-6.9-12-5.2-18.4c1.6-6,6.1-10.6,12-12.2c3.4-0.9,6.3-2.7,8.8-5.1l1-1
		c8.9-8.9,7.6-24.8-3-35.4c-10.6-10.6-26.5-11.9-35.4-3l-1,1c-2.4,2.4-4.1,5.4-5.1,8.8c-1.7,6-6.2,10.4-12.2,12
		c-6.5,1.7-13.5-0.3-18.4-5.2L352.7,23c-3.3-3.3-8.3-4-10.8-1.5l-35.2,35.2c-4.4,4.4-10.7,6.1-16.9,4.6c-6.7-1.6-12.1-6.6-14.2-13.2
		c-1.5-4.5-4.1-8.7-7.6-12.2l-1.1-1.1c-10.6-10.6-26.5-11.9-35.4-3c-8.9,8.9-7.6,24.8,3,35.4l1.1,1.1c3.5,3.5,7.7,6.1,12.2,7.5
		c6.5,2.1,11.5,7.6,13.2,14.2c1.5,6.2-0.2,12.5-4.6,16.9l-35.2,35.2c-1.4,1.4-1.6,3.2-1.5,4.5c0.1,2.2,1.2,4.5,3,6.3l38,38
		c1.9-6.1,5.3-11.7,9.8-16.2l1-1c8.3-8.3,19.6-12.4,31.8-11.7c11.8,0.7,23.1,5.9,31.9,14.7c8.7,8.7,14,20.1,14.7,31.9
		c0.7,12.3-3.4,23.6-11.7,31.8l-1,1c-4.5,4.5-10,7.9-16.2,9.8l38,38c1.8,1.8,4.1,2.9,6.3,3c1.3,0.1,3.1-0.1,4.5-1.5l35.2-35.2
		c4.4-4.4,10.7-6.1,16.9-4.6c6.7,1.6,12.1,6.6,14.2,13.2c1.5,4.5,4.1,8.7,7.5,12.2l1.1,1.1c10.6,10.6,26.5,11.9,35.4,3
		c8.9-8.9,7.6-24.8-3-35.4L476,244c-3.5-3.5-7.7-6.1-12.2-7.6c-6.5-2.1-11.5-7.6-13.2-14.2c-1.5-6.2,0.2-12.5,4.6-16.9l5-5
		l-33.1-33.1c-3.9-3.9-3.9-10.2,0-14.1c3.9-3.9,10.2-3.9,14.1,0l33.1,33.1l16-16c1.4-1.4,1.6-3.2,1.5-4.5
		C491.8,163.4,490.7,161.1,489,159.3z M415.3,141.1c-1.9,1.9-4.4,2.9-7.1,2.9s-5.2-1.1-7.1-2.9s-2.9-4.4-2.9-7.1s1.1-5.2,2.9-7.1
		c1.9-1.9,4.4-2.9,7.1-2.9s5.2,1.1,7.1,2.9s2.9,4.4,2.9,7.1S417.1,139.3,415.3,141.1z"/>
	<path d="M408.2,124.1c-2.6,0-5.2,1.1-7.1,2.9c-1.9,1.9-2.9,4.4-2.9,7.1s1.1,5.2,2.9,7.1s4.4,2.9,7.1,2.9s5.2-1.1,7.1-2.9
		s2.9-4.4,2.9-7.1s-1.1-5.2-2.9-7.1S410.8,124.1,408.2,124.1z"/>
	<path d="M511.9,164.4c-0.4-7.2-3.6-14-8.8-19.3l-37.2-37.2c5.3-2,10-5.1,14-9l1-1c16.7-16.7,15.4-45.3-3-63.7
		c-18.4-18.4-47-19.7-63.7-3l-1,1c-3.9,3.9-7,8.7-9,14L366.8,8.9C355.6-2.3,338.1-3,327.7,7.4l-33.5,33.5
		c-2.5-7.1-6.6-13.6-12.1-19.1l-1.1-1.1c-18.4-18.4-47-19.7-63.7-3c-16.7,16.7-15.4,45.3,3,63.7l1.1,1.1c5.4,5.4,12,9.6,19.1,12.1
		L207,128.1c-10.4,10.4-9.7,27.9,1.5,39.1l39.8,39.7c5.1,5.1,12.4,7,19,5.1c6.1-1.8,10.6-6.7,12-12.9c0.8-3.9,2.7-7.3,5.4-10.1l1-1
		c4.2-4.2,10-6.3,16.5-5.9c6.9,0.4,13.6,3.6,18.9,8.9c5.3,5.3,8.4,12,8.9,18.9c0.4,6.5-1.7,12.3-5.9,16.5l-1,1
		c-2.7,2.7-6.1,4.6-10.1,5.4c-6.3,1.3-11.1,5.8-12.9,12c-2,6.6,0,13.9,5.1,19l39.7,39.7c5.9,5.9,13.5,8.9,20.9,8.9
		c6.7,0,13.2-2.4,18.2-7.4l33.5-33.5c2.5,7.1,6.6,13.6,12.1,19.1l1.1,1.1c18.4,18.4,47,19.7,63.7,3c16.7-16.7,15.4-45.3-3-63.7
		l-1.1-1.1c-5.4-5.4-12-9.6-19.1-12.1l33.5-33.5C509.7,179.1,512.4,171.9,511.9,164.4z M490.5,170.1l-16,16L441.3,153
		c-3.9-3.9-10.2-3.9-14.1,0c-3.9,3.9-3.9,10.2,0,14.1l33.1,33.1l-5,5c-4.4,4.4-6.1,10.7-4.6,16.9c1.6,6.7,6.6,12.1,13.2,14.2
		c4.5,1.5,8.7,4.1,12.2,7.6l1.1,1.1c10.6,10.6,11.9,26.5,3,35.4c-8.9,8.9-24.8,7.6-35.4-3l-1.1-1.1c-3.5-3.5-6.1-7.7-7.5-12.2
		c-2.1-6.5-7.6-11.6-14.2-13.2c-6.2-1.5-12.5,0.2-16.9,4.6l-35.2,35.2c-1.4,1.4-3.2,1.6-4.5,1.5c-2.2-0.1-4.5-1.2-6.3-3l-38-38
		c6.1-1.9,11.7-5.3,16.2-9.8l1-1c8.3-8.3,12.4-19.6,11.7-31.8c-0.7-11.8-5.9-23.1-14.7-31.9c-8.7-8.7-20.1-14-31.9-14.7
		c-12.3-0.7-23.6,3.4-31.8,11.7l-1,1c-4.5,4.5-7.9,10.1-9.8,16.2l-38-38c-1.8-1.8-2.9-4.1-3-6.3c-0.1-1.3,0.1-3.1,1.5-4.5l35.2-35.2
		c4.4-4.4,6.1-10.7,4.6-16.9c-1.6-6.7-6.6-12.1-13.2-14.2c-4.5-1.5-8.7-4.1-12.2-7.5l-1.1-1.1c-10.6-10.6-11.9-26.5-3-35.4
		c8.9-8.9,24.8-7.6,35.4,3l1.1,1.1c3.5,3.5,6.1,7.7,7.6,12.2c2.1,6.5,7.6,11.6,14.2,13.2c6.2,1.5,12.5-0.2,16.9-4.6l35.2-35.2
		c2.5-2.5,7.5-1.8,10.8,1.5l38.9,38.9c4.9,4.9,12,6.9,18.4,5.2c6-1.6,10.6-6.1,12.2-12c0.9-3.4,2.7-6.3,5.1-8.8l1-1
		c8.9-8.9,24.8-7.6,35.4,3c10.6,10.6,11.9,26.5,3,35.4l-1,1c-2.4,2.4-5.4,4.1-8.8,5.1c-6,1.7-10.4,6.2-12,12.2
		c-1.7,6.5,0.3,13.5,5.2,18.4l38.8,38.8c1.8,1.8,2.9,4.1,3,6.3C492,166.9,491.8,168.7,490.5,170.1z"/>
</g>
</svg>
