<?xml version="1.0" encoding="utf-8"?>
<!-- Generator: Adobe Illustrator 22.0.0, SVG Export Plug-In . SVG Version: 6.00 Build 0)  -->
<svg version="1.1" id="Layer_1" xmlns="http://www.w3.org/2000/svg" xmlns:xlink="http://www.w3.org/1999/xlink" x="0px" y="0px"
	 viewBox="0 0 585 585" style="enable-background:new 0 0 585 585;" xml:space="preserve">
<style type="text/css">
	.st0{fill:#D9DCE2;}
	.st1{fill:none;stroke:#187A77;stroke-width:8;stroke-miterlimit:10;}
	.st2{fill:none;stroke:#C72128;stroke-width:5.2083;stroke-miterlimit:10;}
	.st3{opacity:0.35;fill:none;stroke:#C72128;stroke-width:8;stroke-miterlimit:10;}
</style>
<path class="st0" d="M207.5,374.6l-30.3-55.6C122.6,218.7,197,96.9,311.2,99.7l63.3,1.6l61.4,1.5c115,2.9,183.8,129.1,123.8,227.3
	l-32,52.4l-33,54.1c-59.5,97.4-202.2,93.9-256.8-6.4L207.5,374.6z"/>
<g>
	<path d="M459.1,245l-71.5-60.5v-11.3c0-1.7-0.7-3.4-2-4.7l-80-79.9c0,0-0.1,0-0.1-0.1c-1.2-1.3-2.9-2-4.7-2c-0.2,0-0.5,0-0.8,0.1
		h-0.2c-0.2,0-0.5,0-0.7,0H186.1c-20,0-36.2,16.2-36.2,36.2v61.7l-71.1,60.3c-2.3,1.1-3.8,3.4-3.8,5.9V454c0,24.3,19.7,44,44,44
		h299.5c24.3,0,44-19.7,44-44V250.7C462.4,248.3,461.2,246.1,459.1,245z M445.8,250.9l-58.2,49.4v-98.6L445.8,250.9z M307.4,108.9
		l58,57.9h-34.9c-12.8,0-23.1-10.4-23.1-23.1L307.4,108.9L307.4,108.9z M186.1,99.7h108.2v44c0,20,16.2,36.2,36.2,36.2h44v131.5
		L288.7,384c-11.5,9.8-28.4,9.8-39.9,0L163,311.3V122.8C163,110,173.4,99.7,186.1,99.7z M149.9,201.7v98.6L91.7,251L149.9,201.7z
		 M119,484.8c-6.8,0-13.4-2.3-18.7-6.3l89.6-91.6c2.5-2.6,2.4-6.7-0.2-9.2c-2.6-2.5-6.7-2.5-9.2,0.1l-88.7,90.8
		c-2.4-4.5-3.7-9.5-3.7-14.6V265.1l64.1,54.3l0,0l88.1,74.6c16.4,14,40.5,14,56.9,0l152.1-129v188.9c0,5.1-1.3,10.1-3.7,14.6
		l-89.3-90.8c-2.6-2.6-6.7-2.6-9.3-0.1c-2.6,2.6-2.6,6.7-0.1,9.3l90.1,91.6c-5.3,4.1-11.9,6.3-18.7,6.3H119z"/>
	<path d="M184,298.4c2.8,7,9.2,12,16.6,13.1l21.1,27.8c6.9,9.1,19.9,10.8,29,3.9c9.1-6.9,10.9-19.9,4.1-29l-12.5-16.4l1.7-0.7
		l76.9,0.1c2.2,0,4.2-1.1,5.4-2.9c1.2-1.8,1.5-4.1,0.7-6.1l-12.7-31.7c11.6-6.2,16.6-20.1,11.7-32.3s-18.1-18.8-30.7-15.3
		l-12.6-31.8c-0.8-2-2.6-3.5-4.7-4s-4.4,0.2-5.9,1.7l-55.7,53l-32.6,13c-10.8,4.4-16.1,16.6-11.8,27.4L184,298.4z M244.3,322.1
		c1.7,2.2,2.1,5.1,1.1,7.6c-1.1,2.6-3.4,4.3-6.1,4.7c-2.7,0.3-5.4-0.8-7.1-3l-17.2-22.7l14.7-5.9L244.3,322.1z M307,222.2
		c4.2,1.8,7.1,5.8,7.6,10.4c0.5,4.6-1.6,9-5.3,11.7l-9.2-22.9C302.5,221,304.9,221.3,307,222.2z M274,191.1l11.3,28.3
		c0.1,0.2,0.1,0.2,0.2,0.4c0.1,0.2,0.1,0.2,0.1,0.3l25.6,64h-64.1l-19.5-48.8L274,191.1z M184.3,257.3c0.8-2,2.4-3.5,4.4-4.3
		l27.6-11l17.9,44.9l-27.6,11c-4.1,1.7-8.7-0.4-10.4-4.4l-12-30.1C183.4,261.5,183.4,259.3,184.3,257.3z"/>
	<path d="M328.4,223.1c1.7,3.2,5.6,4.6,8.8,2.9l16.9-8.4c3.2-1.7,4.6-5.6,2.9-8.8c-1.7-3.2-5.6-4.6-8.8-2.9l-16.9,8.4
		C328.1,215.9,326.8,219.8,328.4,223.1z"/>
	<path d="M352.9,234.2l-14-1.9c-2.3-0.4-4.7,0.6-6.2,2.5c-1.4,1.9-1.8,4.4-0.9,6.5c0.9,2.2,2.9,3.7,5.3,4l14,1.9
		c3.5,0.5,6.8-2.1,7.3-5.6C358.9,238.1,356.5,234.8,352.9,234.2z"/>
	<path d="M319.3,209.8c2.8,2.3,6.9,1.9,9.2-0.9l8.4-10.3c2.3-2.8,1.9-6.9-0.9-9.2c-2.8-2.3-6.9-1.9-9.2,0.9l-8.4,10.3
		C316.1,203.3,316.6,207.5,319.3,209.8z"/>
</g>
<circle class="st1" cx="42.1" cy="38.2" r="33"/>
<circle class="st2" cx="28" cy="556.3" r="15.6"/>
<circle class="st3" cx="469.8" cy="108.9" r="24"/>
</svg>
