<?xml version="1.0" encoding="utf-8"?>
<!-- Generator: Adobe Illustrator 22.0.0, SVG Export Plug-In . SVG Version: 6.00 Build 0)  -->
<svg version="1.1" id="Layer_1" xmlns="http://www.w3.org/2000/svg" xmlns:xlink="http://www.w3.org/1999/xlink" x="0px" y="0px"
	 viewBox="0 0 512 512" style="enable-background:new 0 0 512 512;" xml:space="preserve">
<style type="text/css">
	.st0{fill:#D9DCE2;}
	.st1{fill:none;stroke:#187A77;stroke-width:8;stroke-miterlimit:10;}
	.st2{fill:none;stroke:#C72128;stroke-width:5.2083;stroke-miterlimit:10;}
	.st3{opacity:0.35;fill:none;stroke:#C72128;stroke-width:8;stroke-miterlimit:10;}
</style>
<path class="st0" d="M167.8,319L140,268.1C90,176.3,158.1,64.9,262.6,67.5l58,1.4l56.2,1.4C482,72.9,544.9,188.5,490,278.3l-29.3,48
	l-30.2,49.5c-54.5,89.1-185,85.9-235-5.8L167.8,319z"/>
<g>
	<path d="M51,101.8c-9.5,0-17.2,7.8-17.2,17.2s7.8,17.2,17.2,17.2s17.2-7.8,17.2-17.2C68.3,109.5,60.5,101.8,51,101.8z M51,124.5
		c-3.1,0-5.5-2.4-5.5-5.5s2.4-5.5,5.5-5.5s5.5,2.4,5.5,5.5C56.5,122,54,124.5,51,124.5z"/>
	<path d="M94.9,101.8c-9.5,0-17.2,7.8-17.2,17.2s7.8,17.2,17.2,17.2s17.2-7.8,17.2-17.2C112.1,109.5,104.4,101.8,94.9,101.8z
		 M94.9,124.5c-3.1,0-5.5-2.4-5.5-5.5s2.4-5.5,5.5-5.5s5.5,2.4,5.5,5.5C100.4,122,97.9,124.5,94.9,124.5z"/>
	<path d="M138.8,101.8c-9.5,0-17.2,7.8-17.2,17.2s7.8,17.2,17.2,17.2c9.5,0,17.2-7.8,17.2-17.2C156,109.5,148.3,101.8,138.8,101.8z
		 M138.8,124.5c-3.1,0-5.5-2.4-5.5-5.5s2.4-5.5,5.5-5.5s5.5,2.4,5.5,5.5C144.3,122,141.8,124.5,138.8,124.5z"/>
	<path d="M402.8,195.1c3.2,0,5.9-2.7,5.9-5.9l0.5-84.1c0-14.3-11.6-25.9-25.9-25.9H33.5c-14.3,0-25.9,11.6-25.9,25.9v284.3
		c0,12.9,9.6,23.7,22,25.6c1.3,0.2,2.6,0.3,3.9,0.3h114.3v21.1h-17.7c-11.8,0-21.5,9.6-21.5,21.5v12.6c0,5.4,4.4,9.8,9.8,9.8h28
		c3.2,0,5.9-2.7,5.9-5.9s-2.7-5.9-5.9-5.9h-26v-10.7c0-5.3,4.4-9.7,9.7-9.7h156.1c5.3,0,9.7,4.4,9.7,9.7v10.7H182.9
		c-3.2,0-5.9,2.7-5.9,5.9s2.7,5.9,5.9,5.9h114.9c5.4,0,9.8-4.4,9.8-9.8v-12.7c0-11.8-9.6-21.5-21.5-21.5h-17.7v-21.1h114.3
		c1.3,0,2.7-0.1,3.9-0.3c12.4-1.9,22-12.6,22-25.6V225.7c0-3.2-2.7-5.9-5.9-5.9s-5.9,2.7-5.9,5.9v129.6H213.2V159.1h183.6v30.1
		C396.9,192.5,399.5,195.1,402.8,195.1z M19.8,159.1h181.7v195.8H19.8V159.1z M256.8,436.3h-97.1v-21.1h97.1V436.3z M396.9,367.1
		v22.3c0,7.3-5.6,13.3-12.7,14c-0.5,0.1-0.9,0.1-1.4,0.1H33.5c-0.5,0-0.9,0-1.4-0.1c-7.1-0.7-12.7-6.7-12.7-14v-22.3H396.9z
		 M207.4,147.4H19.8v-42.3c0-7.8,6.4-14.1,14.1-14.1h348.8c7.8,0,14.1,6.4,14.1,14.1v42.3L207.4,147.4L207.4,147.4z"/>
	<path d="M44.4,182.6h29.8c3.2,0,5.9-2.7,5.9-5.9s-2.7-5.9-5.9-5.9H44.4c-3.2,0-5.9,2.7-5.9,5.9C38.6,179.9,41.2,182.6,44.4,182.6z"
		/>
	<path d="M94.5,182.6h14.1c3.2,0,5.9-2.7,5.9-5.9s-2.7-5.9-5.9-5.9H94.5c-3.2,0-5.9,2.7-5.9,5.9C88.7,179.9,91.3,182.6,94.5,182.6z"
		/>
	<path d="M89.1,191.6H69.5c-3.2,0-5.9,2.7-5.9,5.9c0,3.2,2.7,5.9,5.9,5.9h19.6c3.2,0,5.9-2.7,5.9-5.9
		C94.9,194.2,92.3,191.6,89.1,191.6z"/>
	<path d="M181.5,213.1h-19.6c-3.2,0-5.9,2.7-5.9,5.9c0,3.2,2.7,5.9,5.9,5.9h19.6c3.2,0,5.9-2.7,5.9-5.9
		C187.4,215.7,184.8,213.1,181.5,213.1z"/>
	<path d="M101.2,197.5c0,3.2,2.7,5.9,5.9,5.9h47c3.2,0,5.9-2.7,5.9-5.9c0-3.2-2.7-5.9-5.9-5.9h-47
		C103.9,191.6,101.2,194.2,101.2,197.5z"/>
	<path d="M82.5,218.9c0,3.2,2.7,5.9,5.9,5.9h10.2c3.2,0,5.9-2.7,5.9-5.9c0-3.2-2.7-5.9-5.9-5.9H88.3
		C85.1,213.1,82.5,215.7,82.5,218.9z"/>
	<path d="M143.9,224.7c3.2,0,5.9-2.7,5.9-5.9c0-3.2-2.7-5.9-5.9-5.9h-28.2c-3.2,0-5.9,2.7-5.9,5.9c0,3.2,2.7,5.9,5.9,5.9H143.9z"/>
	<path d="M80.1,295.1c0-3.2-2.7-5.9-5.9-5.9H44.4c-3.2,0-5.9,2.7-5.9,5.9s2.7,5.9,5.9,5.9h29.8C77.4,301,80.1,298.3,80.1,295.1z"/>
	<path d="M94.5,289.2c-3.2,0-5.9,2.7-5.9,5.9s2.7,5.9,5.9,5.9h14.1c3.2,0,5.9-2.7,5.9-5.9s-2.7-5.9-5.9-5.9H94.5z"/>
	<path d="M94.9,315.8c0-3.2-2.7-5.9-5.9-5.9H69.5c-3.2,0-5.9,2.7-5.9,5.9s2.7,5.9,5.9,5.9h19.6C92.3,321.7,94.9,319.1,94.9,315.8z"
		/>
	<path d="M98.5,331.4H88.3c-3.2,0-5.9,2.7-5.9,5.9s2.7,5.9,5.9,5.9h10.2c3.2,0,5.9-2.7,5.9-5.9S101.8,331.4,98.5,331.4z"/>
	<path d="M181.5,331.4h-19.6c-3.2,0-5.9,2.7-5.9,5.9s2.7,5.9,5.9,5.9h19.6c3.2,0,5.9-2.7,5.9-5.9S184.8,331.4,181.5,331.4z"/>
	<path d="M160,315.8c0-3.2-2.7-5.9-5.9-5.9h-47c-3.2,0-5.9,2.7-5.9,5.9s2.7,5.9,5.9,5.9h47C157.3,321.7,160,319.1,160,315.8z"/>
	<path d="M143.9,331.4h-28.2c-3.2,0-5.9,2.7-5.9,5.9s2.7,5.9,5.9,5.9h28.2c3.2,0,5.9-2.7,5.9-5.9S147.2,331.4,143.9,331.4z"/>
	<path d="M44.4,251.7h16.5c3.2,0,5.9-2.7,5.9-5.9c0-3.2-2.7-5.9-5.9-5.9H44.4c-3.2,0-5.9,2.7-5.9,5.9
		C38.6,249.1,41.2,251.7,44.4,251.7z"/>
	<path d="M143.5,245.8c0-3.2-2.7-5.9-5.9-5.9H77.4c-3.2,0-5.9,2.7-5.9,5.9c0,3.2,2.7,5.9,5.9,5.9h60.3
		C140.9,251.7,143.5,249.1,143.5,245.8z"/>
	<path d="M132.6,266.5c0-3.2-2.7-5.9-5.9-5.9H69.5c-3.2,0-5.9,2.7-5.9,5.9s2.7,5.9,5.9,5.9h57.2
		C129.9,272.4,132.6,269.8,132.6,266.5z"/>
	<path d="M143.2,272.4h11c3.2,0,5.9-2.7,5.9-5.9s-2.7-5.9-5.9-5.9h-11c-3.2,0-5.9,2.7-5.9,5.9C137.3,269.8,139.9,272.4,143.2,272.4z
		"/>
	<path d="M276.6,306.4H239c-3.2,0-5.9,2.7-5.9,5.9c0,3.2,2.7,5.9,5.9,5.9h37.6c3.2,0,5.9-2.7,5.9-5.9
		C282.5,309,279.9,306.4,276.6,306.4z"/>
	<path d="M372.2,306.4h-74.4c-3.2,0-5.9,2.7-5.9,5.9c0,3.2,2.7,5.9,5.9,5.9h74.4c3.2,0,5.9-2.7,5.9-5.9
		C378.1,309,375.4,306.4,372.2,306.4z"/>
	<path d="M276.6,329H239c-3.2,0-5.9,2.7-5.9,5.9s2.7,5.9,5.9,5.9h37.6c3.2,0,5.9-2.7,5.9-5.9S279.9,329,276.6,329z"/>
	<path d="M372.2,329h-74.4c-3.2,0-5.9,2.7-5.9,5.9s2.7,5.9,5.9,5.9h74.4c3.2,0,5.9-2.7,5.9-5.9S375.4,329,372.2,329z"/>
	<path d="M378.2,186c0-8.4-6.8-15.2-15.2-15.2H248.1c-8.4,0-15.2,6.8-15.2,15.2v79.6l0,0v14c0,8.4,6.8,15.2,15.2,15.2h114.9
		c8.4,0,15.2-6.8,15.2-15.2L378.2,186L378.2,186z M366.5,279.5c0,1.9-1.6,3.4-3.4,3.4H248.1c-1.9,0-3.4-1.6-3.4-3.4V268l43-43
		l29.7,33.5c2.1,2.4,5.9,2.7,8.3,0.5c2.4-2.1,2.7-5.9,0.5-8.3l-2.7-3.1l13.3-13.3l29.6,33.5V279.5z M366.5,250.1l-22.6-25.5
		c-1.7-1.9-4.2-3.1-6.7-3.1c-2.6-0.1-5,0.9-6.8,2.7l-14.6,14.6l-20.9-23.6c-1.7-1.9-4.2-3.1-6.7-3.1c-2.6-0.1-5,0.9-6.8,2.7
		l-36.5,36.5v-65.4c0-1.9,1.6-3.4,3.4-3.4h114.9c1.9,0,3.4,1.6,3.4,3.4v64.1H366.5z"/>
</g>
<path class="st0" d="M-395.9,319l-27.7-50.9c-50-91.7,18.1-203.2,122.5-200.6l58,1.4l56.2,1.4c105.2,2.6,168.2,118.2,113.3,208
	l-29.3,48l-30.2,49.5c-54.5,89.1-185,85.9-235-5.8L-395.9,319z"/>
<path d="M-294.1,421.8c3.4,0,6.2-2.8,6.2-6.2s-2.8-6.2-6.2-6.2h-77.3c-3.4,0-6.2,2.8-6.2,6.2s2.8,6.2,6.2,6.2H-294.1z"/>
<path d="M-385.7,318.1v25.7c0,8,6.6,14.6,14.6,14.6h76.6c8.1,0,14.6-6.6,14.6-14.6v-25.7c0-16.8-10.5-31.2-25.3-36.9
	c9.8-8,16.2-20.2,16.2-33.9c0-24.1-19.7-43.7-43.7-43.7s-43.7,19.7-43.7,43.7c0,13.7,6.3,25.9,16.2,33.9
	C-375.2,286.8-385.7,301.2-385.7,318.1z M-364.1,247.2c0-17.2,14-31.2,31.2-31.2s31.2,14,31.2,31.2s-14.1,31.2-31.2,31.2
	C-350.1,278.5-364.1,264.4-364.1,247.2z M-373.2,318.1c0-14.9,12.2-27.1,27.1-27.1h26.7c14.9,0,27.1,12.2,27.1,27.1v25.7
	c0,1.2-0.9,2.1-2.1,2.1h-76.6c-1.2,0-2.1-0.9-2.1-2.1V318.1z"/>
<path d="M-166.5,82.5h-4.2c-3.4,0-6.2,2.8-6.2,6.2s2.8,6.2,6.2,6.2h4.2c1.8,0,3.2,1.4,3.2,3.2v64.2c0,1.7-1.5,3.2-3.2,3.2h-47.8
	c-0.1,0-0.1,0-0.2,0c-0.1,0-0.1,0-0.2,0h-21.8c-4.9,0-9.6,2.3-12.5,6.2l-14.6,19.2v-14.3c0-6.1-5-11.1-11.1-11.1h-77.7
	c-1.8,0-3.2-1.4-3.2-3.2V98.3c0-1.7,1.5-3.2,3.2-3.2h155.1c3.4,0,6.2-2.8,6.2-6.2s-2.8-6.2-6.2-6.2h-11V54c0-17.2-14-31.2-31.2-31.2
	h-186.6c-17.2,0-31.2,14-31.2,31.2v22c0,3.4,2.8,6.2,6.2,6.2s6.2-2.8,6.2-6.2V54c0-10.3,8.4-18.7,18.7-18.7h23.6V54
	c0,8,6.5,14.6,14.6,14.6h110c8,0,14.6-6.6,14.6-14.6V35.2h23.9c10.3,0,18.7,8.4,18.7,18.7v28.6h-131.7c-8.7,0-15.7,7.1-15.7,15.7
	v64.2c0,8.7,7.1,15.7,15.7,15.7h76.3v31.4c0,6,7.6,8.5,11.2,3.7l25.8-33.9c0.6-0.8,1.6-1.2,2.6-1.2h15.7v204.4h-190.1
	c-3.4,0-6.2,2.8-6.2,6.2s2.8,6.2,6.2,6.2h190.1V418c0,10.3-8.4,18.7-18.7,18.7h-186.6c-10.3,0-18.7-8.4-18.7-18.7v-22.9h7.5
	c3.4,0,6.2-2.8,6.2-6.2s-2.8-6.2-6.2-6.2h-7.5V102.5c0-3.4-2.8-6.2-6.2-6.2s-6.2,2.7-6.2,6.2V418c0,17.2,14,31.2,31.2,31.2h186.6
	c17.2,0,31.2-14,31.2-31.2V178.3h41.7c8.7,0,15.7-7.1,15.7-15.7V98.3C-150.7,89.6-157.8,82.5-166.5,82.5z M-275.8,54
	c0,1.2-0.9,2.1-2.1,2.1h-110c-1.2,0-2.1-0.9-2.1-2.1V35.2h114.1V54z"/>
<path d="M-326.6,145.3h-1.3c-1.5,0-2.8-0.8-3.6-2.1c-1.7-3-5.4-4.2-8.5-2.5c-3,1.7-4.2,5.4-2.5,8.5c2.9,5.3,8.5,8.7,14.6,8.7h1.3
	c9.1,0,16.5-7.4,16.5-16.5v-23.4c0-9.1-7.4-16.5-16.5-16.5h-1.3c-9.1,0-16.5,7.4-16.5,16.5v1.3c0,9.1,7.4,16.5,16.5,16.5h1.3
	c1.4,0,2.7-0.2,4-0.5v6.1C-322.5,143.5-324.3,145.3-326.6,145.3z M-326.6,123.2h-1.3c-2.2,0-4-1.8-4-4v-1.3c0-2.2,1.8-4,4-4h1.3
	c2.2,0,4,1.8,4,4v1.3C-322.5,121.4-324.3,123.2-326.6,123.2z"/>
<path d="M-280.3,145.3h-1.3c-1.5,0-2.8-0.8-3.6-2.1c-1.7-3-5.4-4.2-8.5-2.5c-3,1.7-4.2,5.4-2.5,8.5c2.9,5.3,8.5,8.7,14.6,8.7h1.3
	c9.1,0,16.5-7.4,16.5-16.5v-23.4c0-9.1-7.4-16.5-16.5-16.5h-1.3c-9.1,0-16.5,7.4-16.5,16.5v1.3c0,9.1,7.4,16.5,16.5,16.5h1.3
	c1.4,0,2.7-0.2,4-0.5v6.1C-276.3,143.5-278.1,145.3-280.3,145.3z M-280.3,123.2h-1.3c-2.2,0-4-1.8-4-4v-1.3c0-2.2,1.8-4,4-4h1.3
	c2.2,0,4,1.8,4,4v1.3C-276.3,121.4-278.1,123.2-280.3,123.2z"/>
<path d="M-234.1,145.3h-1.3c-1.5,0-2.8-0.8-3.6-2.1c-1.7-3-5.4-4.2-8.5-2.5c-3,1.7-4.2,5.4-2.5,8.5c2.9,5.3,8.5,8.7,14.6,8.7h1.3
	c9.1,0,16.5-7.4,16.5-16.5v-23.4c0-9.1-7.4-16.5-16.5-16.5h-1.3c-9.1,0-16.5,7.4-16.5,16.5v1.3c0,9.1,7.4,16.5,16.5,16.5h1.3
	c1.4,0,2.7-0.2,4-0.5v6.1C-230,143.5-231.9,145.3-234.1,145.3z M-234.1,123.2h-1.3c-2.2,0-4-1.8-4-4v-1.3c0-2.2,1.8-4,4-4h1.3
	c2.2,0,4,1.8,4,4v1.3C-230,121.4-231.9,123.2-234.1,123.2z"/>
<path d="M-205.7,117.9v1.3c0,9.1,7.4,16.5,16.5,16.5h1.3c1.4,0,2.7-0.2,4-0.5v6.1c0,2.2-1.8,4-4,4h-1.3c-1.5,0-2.8-0.8-3.6-2.1
	c-1.7-3-5.4-4.2-8.5-2.5c-3,1.7-4.2,5.4-2.5,8.5c2.9,5.3,8.5,8.7,14.6,8.7h1.3c9.1,0,16.5-7.4,16.5-16.5v-23.4
	c0-9.1-7.4-16.5-16.5-16.5h-1.3C-198.3,101.3-205.7,108.7-205.7,117.9z M-193.2,117.9c0-2.2,1.8-4,4-4h1.3c2.2,0,4,1.8,4,4v1.3
	c0,2.2-1.8,4-4,4h-1.3c-2.2,0-4-1.8-4-4V117.9z"/>
<circle class="st1" cx="181.6" cy="39.2" r="33"/>
<circle class="st2" cx="472" cy="221.8" r="15.6"/>
<circle class="st3" cx="463.6" cy="456.3" r="24"/>
</svg>
